[{
   "page":1,
   "total_results":369336,
   "total_pages":18467,
   "results":[
      {
         "vote_count":1747,
         "id":351286,
         "video":false,
         "vote_average":6.6,
         "title":"Jurassic World: Fallen Kingdom",
         "popularity":266.869,
         "poster_path":"\/c9XxwwhPHdaImA2f1WEfEsbhaFB.jpg",
         "original_language":"en",
         "original_title":"Jurassic World: Fallen Kingdom",
         "genre_ids":[
            28,
            12,
            878
         ],
         "backdrop_path":"\/gBmrsugfWpiXRh13Vo3j0WW55qD.jpg",
         "adult":false,
         "overview":"Several years after the demise of Jurassic World, a volcanic eruption threatens the remaining dinosaurs on the island of Isla Nublar. Claire Dearing, the former park manager and founder of the Dinosaur Protection Group, recruits Owen Grady to help prevent the extinction of the dinosaurs once again.",
         "release_date":"2018-06-06"
      },
      {
         "vote_count":376,
         "id":363088,
         "video":false,
         "vote_average":7.2,
         "title":"Ant-Man and the Wasp",
         "popularity":184.447,
         "poster_path":"\/rv1AWImgx386ULjcf62VYaW8zSt.jpg",
         "original_language":"en",
         "original_title":"Ant-Man and the Wasp",
         "genre_ids":[
            28,
            12,
            14,
            35,
            878
         ],
         "backdrop_path":"\/6P3c80EOm7BodndGBUAJHHsHKrp.jpg",
         "adult":false,
         "overview":"As Scott Lang balances being both a superhero and a father, Hope van Dyne and Dr. Hank Pym present an urgent new mission that finds the Ant-Man fighting alongside the Wasp to uncover secrets from their past.",
         "release_date":"2018-07-04"
      },
      {
         "vote_count":7235,
         "id":284053,
         "video":false,
         "vote_average":7.5,
         "title":"Thor: Ragnarok",
         "popularity":136.093,
         "poster_path":"\/rzRwTcFvttcN1ZpX2xv4j3tSdJu.jpg",
         "original_language":"en",
         "original_title":"Thor: Ragnarok",
         "genre_ids":[
            28,
            12,
            35
         ],
         "backdrop_path":"\/kaIfm5ryEOwYg8mLbq8HkPuM1Fo.jpg",
         "adult":false,
         "overview":"Thor is on the other side of the universe and finds himself in a race against time to get back to Asgard to stop Ragnarok, the prophecy of destruction to his homeworld and the end of Asgardian civilization, at the hands of an all-powerful new threat, the ruthless Hela.",
         "release_date":"2017-10-25"
      },
      {
         "vote_count":982,
         "id":260513,
         "video":false,
         "vote_average":7.7,
         "title":"Incredibles 2",
         "popularity":132.202,
         "poster_path":"\/x1txcDXkcM65gl7w20PwYSxAYah.jpg",
         "original_language":"en",
         "original_title":"Incredibles 2",
         "genre_ids":[
            28,
            12,
            16,
            10751
         ],
         "backdrop_path":"\/mabuNsGJgRuCTuGqjFkWe1xdu19.jpg",
         "adult":false,
         "overview":"Elastigirl springs into action to save the day, while Mr. Incredible faces his greatest challenge yet – taking care of the problems of his three children.",
         "release_date":"2018-06-14"
      },
      {
         "vote_count":5554,
         "id":299536,
         "video":false,
         "vote_average":8.4,
         "title":"Avengers: Infinity War",
         "popularity":127.041,
         "poster_path":"\/7WsyChQLEftFiDOVTGkv3hFpyyt.jpg",
         "original_language":"en",
         "original_title":"Avengers: Infinity War",
         "genre_ids":[
            12,
            878,
            14,
            28
         ],
         "backdrop_path":"\/bOGkgRGdhrBYJSLpXaxhXVstddV.jpg",
         "adult":false,
         "overview":"As the Avengers and their allies have continued to protect the world from threats too large for any one hero to handle, a new danger has emerged from the cosmic shadows: Thanos. A despot of intergalactic infamy, his goal is to collect all six Infinity Stones, artifacts of unimaginable power, and use them to inflict his twisted will on all of reality. Everything the Avengers have fought for has led up to this moment - the fate of Earth and existence itself has never been more uncertain.",
         "release_date":"2018-04-25"
      },
      {
         "vote_count":2811,
         "id":333339,
         "video":false,
         "vote_average":7.7,
         "title":"Ready Player One",
         "popularity":123.245,
         "poster_path":"\/pU1ULUq8D3iRxl1fdX2lZIzdHuI.jpg",
         "original_language":"en",
         "original_title":"Ready Player One",
         "genre_ids":[
            12,
            878,
            14
         ],
         "backdrop_path":"\/q7fXcrDPJcf6t3rzutaNwTzuKP1.jpg",
         "adult":false,
         "overview":"When the creator of a popular video game system dies, a virtual contest is created to compete for his fortune.",
         "release_date":"2018-03-28"
      },
      {
         "vote_count":2033,
         "id":447332,
         "video":false,
         "vote_average":7.2,
         "title":"A Quiet Place",
         "popularity":100.642,
         "poster_path":"\/nAU74GmpUk7t5iklEp3bufwDq4n.jpg",
         "original_language":"en",
         "original_title":"A Quiet Place",
         "genre_ids":[
            18,
            27,
            53,
            878
         ],
         "backdrop_path":"\/roYyPiQDQKmIKUEhO912693tSja.jpg",
         "adult":false,
         "overview":"A family is forced to live in silence while hiding from creatures that hunt by sound.",
         "release_date":"2018-04-03"
      },
      {
         "vote_count":173,
         "id":442249,
         "video":false,
         "vote_average":6.2,
         "title":"The First Purge",
         "popularity":92.475,
         "poster_path":"\/2slvblTroiT1lY9bYLK7Amigo1k.jpg",
         "original_language":"en",
         "original_title":"The First Purge",
         "genre_ids":[
            28,
            27,
            878,
            53
         ],
         "backdrop_path":"\/dnaitaoCh8MftfYEVnprcuYExZp.jpg",
         "adult":false,
         "overview":"To push the crime rate below one percent for the rest of the year, the New Founding Fathers of America test a sociological theory that vents aggression for one night in one isolated community. But when the violence of oppressors meets the rage of the others, the contagion will explode from the trial-city borders and spread across the nation.",
         "release_date":"2018-07-04"
      },
      {
         "vote_count":1218,
         "id":427641,
         "video":false,
         "vote_average":6.1,
         "title":"Rampage",
         "popularity":89.888,
         "poster_path":"\/3gIO6mCd4Q4PF1tuwcyI3sjFrtI.jpg",
         "original_language":"en",
         "original_title":"Rampage",
         "genre_ids":[
            28,
            12,
            878,
            14
         ],
         "backdrop_path":"\/wrqUiMXttHE4UBFMhLHlN601MZh.jpg",
         "adult":false,
         "overview":"Primatologist Davis Okoye shares an unshakable bond with George, the extraordinarily intelligent, silverback gorilla who has been in his care since birth.  But a rogue genetic experiment gone awry mutates this gentle ape into a raging creature of enormous size.  To make matters worse, it’s soon discovered there are other similarly altered animals.  As these newly created alpha predators tear across North America, destroying everything in their path, Okoye teams with a discredited genetic engineer to secure an antidote, fighting his way through an ever-changing battlefield, not only to halt a global catastrophe but to save the fearsome creature that was once his friend.",
         "release_date":"2018-04-12"
      },
      {
         "vote_count":2068,
         "id":338970,
         "video":false,
         "vote_average":6.2,
         "title":"Tomb Raider",
         "popularity":88.44,
         "poster_path":"\/ePyN2nX9t8SOl70eRW47Q29zUFO.jpg",
         "original_language":"en",
         "original_title":"Tomb Raider",
         "genre_ids":[
            28,
            12,
            14,
            18,
            9648,
            53
         ],
         "backdrop_path":"\/jLYhKjSC8LyXzWZc6VwPjMYP2wy.jpg",
         "adult":false,
         "overview":"Lara Croft, the fiercely independent daughter of a missing adventurer, must push herself beyond her limits when she finds herself on the island where her father disappeared.",
         "release_date":"2018-03-05"
      },
      {
         "vote_count":2253,
         "id":337167,
         "video":false,
         "vote_average":6,
         "title":"Fifty Shades Freed",
         "popularity":82.558,
         "poster_path":"\/jjPJ4s3DWZZvI4vw8Xfi4Vqa1Q8.jpg",
         "original_language":"en",
         "original_title":"Fifty Shades Freed",
         "genre_ids":[
            18,
            10749
         ],
         "backdrop_path":"\/9ywA15OAiwjSTvg3cBs9B7kOCBF.jpg",
         "adult":false,
         "overview":"Believing they have left behind shadowy figures from their past, newlyweds Christian and Ana fully embrace an inextricable connection and shared life of luxury. But just as she steps into her role as Mrs. Grey and he relaxes into an unfamiliar stability, new threats could jeopardize their happy ending before it even begins.",
         "release_date":"2018-01-17"
      },
      {
         "vote_count":46,
         "id":447200,
         "video":false,
         "vote_average":6.1,
         "title":"Skyscraper",
         "popularity":73.24,
         "poster_path":"\/5LYSsOPzuP13201qSzMjNxi8FxN.jpg",
         "original_language":"en",
         "original_title":"Skyscraper",
         "genre_ids":[
            28,
            53,
            18
         ],
         "backdrop_path":"\/9bn8ApCTuqTb7rLoxzyGcyzjuFx.jpg",
         "adult":false,
         "overview":"Framed and on the run, a former FBI agent must save his family from a blazing fire in the world's tallest building.",
         "release_date":"2018-07-11"
      },
      {
         "vote_count":30,
         "id":400155,
         "video":false,
         "vote_average":7.7,
         "title":"Hotel Transylvania 3: Summer Vacation",
         "popularity":71.359,
         "poster_path":"\/nbjqedtHhR6HFlAHFMTFGcnoTzq.jpg",
         "original_language":"en",
         "original_title":"Hotel Transylvania 3: Summer Vacation",
         "genre_ids":[
            10751,
            14,
            35,
            16
         ],
         "backdrop_path":"\/m03jul0YdVEOFXEQVUv6pOVQYGL.jpg",
         "adult":false,
         "overview":"Dracula, Mavis, Johnny and the rest of the Drac Pack take a vacation on a luxury Monster Cruise Ship, where Dracula falls in love with the ship's captain, Ericka, who's secretly a descendant of Abraham Van Helsing, the notorious monster slayer.",
         "release_date":"2018-07-12"
      },
      {
         "vote_count":8,
         "id":353081,
         "video":false,
         "vote_average":0,
         "title":"Mission: Impossible - Fallout",
         "popularity":71.213,
         "poster_path":"\/80PWnSTkygi3QWWmJ3hrAwqvLnO.jpg",
         "original_language":"en",
         "original_title":"Mission: Impossible - Fallout",
         "genre_ids":[
            12,
            28,
            53
         ],
         "backdrop_path":"\/5qxePyMYDisLe8rJiBYX8HKEyv2.jpg",
         "adult":false,
         "overview":"When an IMF mission ends badly, the world is faced with dire consequences. As Ethan Hunt takes it upon himself to fulfil his original briefing, the CIA begin to question his loyalty and his motives. The IMF team find themselves in a race against time, hunted by assassins while trying to prevent a global catastrophe.",
         "release_date":"2018-07-25"
      },
      {
         "vote_count":2939,
         "id":383498,
         "video":false,
         "vote_average":7.6,
         "title":"Deadpool 2",
         "popularity":68.295,
         "poster_path":"\/to0spRl1CMDvyUbOnbb4fTk3VAd.jpg",
         "original_language":"en",
         "original_title":"Deadpool 2",
         "genre_ids":[
            28,
            35,
            878
         ],
         "backdrop_path":"\/3P52oz9HPQWxcwHOwxtyrVV1LKi.jpg",
         "adult":false,
         "overview":"Wisecracking mercenary Deadpool battles the evil and powerful Cable and other bad guys to save a boy's life.",
         "release_date":"2018-05-15"
      },
      {
         "vote_count":9,
         "id":318484,
         "video":false,
         "vote_average":5.2,
         "title":"Qayamat: City Under Threat",
         "popularity":67.284,
         "poster_path":"\/e6n3Tf86MJgqtF34bLogGOpkNQf.jpg",
         "original_language":"hi",
         "original_title":"Qayamat: City Under Threat",
         "genre_ids":[
            28,
            18,
            80
         ],
         "backdrop_path":"\/bsiSNHnzU9brwsP1hVs1AQMt9hl.jpg",
         "adult":false,
         "overview":"CBI Officer Akram Sheikh (Sunil Shetty) is on the verge of nabbing three dreaded Pakistan-backed arms dealers , the brothers Ali (Arbaaz Khan) and Abbas (Sanjay Kapoor) and their common moll Laila (Isha Koppikar) . When Sheikh busts an important arms deal conducted by his three targets , Ali-Abbas join forces with Gopal (Chunky Pandey) , a corrupt scientist to get hold of a deadly virus and take the tourists at the Elphinstone Jail resort as hostage . Akram Sheikh is now compelled to get help from Rachit (Ajay Devgan) , a criminal serving jail time who was a former associate of Ali-Abbas and the only person in history to have successfully escaped the Elphinstone jail . Along with a commando team , they try to pull off a rescue attempt by breaking in the jail and rescuing the hostages .",
         "release_date":"2003-07-11"
      },
      {
         "vote_count":8445,
         "id":102899,
         "video":false,
         "vote_average":7,
         "title":"Ant-Man",
         "popularity":67.103,
         "poster_path":"\/D6e8RJf2qUstnfkTslTXNTUAlT.jpg",
         "original_language":"en",
         "original_title":"Ant-Man",
         "genre_ids":[
            878,
            28,
            12
         ],
         "backdrop_path":"\/kvXLZqY0Ngl1XSw7EaMQO0C1CCj.jpg",
         "adult":false,
         "overview":"Armed with the astonishing ability to shrink in scale but increase in strength, master thief Scott Lang must embrace his inner-hero and help his mentor, Doctor Hank Pym, protect the secret behind his spectacular Ant-Man suit from a new generation of towering threats. Against seemingly insurmountable obstacles, Pym and Lang must plan and pull off a heist that will save the world.",
         "release_date":"2015-07-14"
      },
      {
         "vote_count":11472,
         "id":135397,
         "video":false,
         "vote_average":6.5,
         "title":"Jurassic World",
         "popularity":62.545,
         "poster_path":"\/jjBgi2r5cRt36xF6iNUEhzscEcb.jpg",
         "original_language":"en",
         "original_title":"Jurassic World",
         "genre_ids":[
            28,
            12,
            878,
            53
         ],
         "backdrop_path":"\/t5KONotASgVKq4N19RyhIthWOPG.jpg",
         "adult":false,
         "overview":"Twenty-two years after the events of Jurassic Park, Isla Nublar now features a fully functioning dinosaur theme park, Jurassic World, as originally envisioned by John Hammond.",
         "release_date":"2015-06-06"
      },
      {
         "vote_count":5381,
         "id":8966,
         "video":false,
         "vote_average":5.9,
         "title":"Twilight",
         "popularity":60.915,
         "poster_path":"\/lcMp3AONdNhjYE9MmTtMMTOiRDP.jpg",
         "original_language":"en",
         "original_title":"Twilight",
         "genre_ids":[
            14,
            18,
            10749
         ],
         "backdrop_path":"\/nEdBHjvRkKwEPD1Ps5A3rRiiLVN.jpg",
         "adult":false,
         "overview":"When Bella Swan moves to a small town in the Pacific Northwest to live with her father, she starts school and meets the reclusive Edward Cullen, a mysterious classmate who reveals himself to be a 108-year-old vampire. Despite Edward's repeated cautions, Bella can't help but fall in love with him, a fatal move that endangers her own life when a coven of bloodsuckers try to challenge the Cullen clan.",
         "release_date":"2008-11-20"
      },
      {
         "vote_count":6721,
         "id":284054,
         "video":false,
         "vote_average":7.3,
         "title":"Black Panther",
         "popularity":60.821,
         "poster_path":"\/uxzzxijgPIY7slzFvMotPv8wjKA.jpg",
         "original_language":"en",
         "original_title":"Black Panther",
         "genre_ids":[
            28,
            12,
            14,
            878
         ],
         "backdrop_path":"\/6ELJEzQJ3Y45HczvreC3dg0GV5R.jpg",
         "adult":false,
         "overview":"King T'Challa returns home from America to the reclusive, technologically advanced African nation of Wakanda to serve as his country's new leader. However, T'Challa soon finds that he is challenged for the throne by factions within his own country as well as without. Using powers reserved to Wakandan kings, T'Challa assumes the Black Panther mantel to join with girlfriend Nakia, the queen-mother, his princess-kid sister, members of the Dora Milaje (the Wakandan 'special forces') and an American secret agent, to prevent Wakanda from being dragged into a world war.",
         "release_date":"2018-02-13"
      }
   ]
}]
